%YAML 1.1
%TAG !u! tag:unity3d.com,2011:
--- !u!21 &2100000
Material:
  serializedVersion: 6
  m_ObjectHideFlags: 0
  m_CorrespondingSourceObject: {fileID: 0}
  m_PrefabInstance: {fileID: 0}
  m_PrefabAsset: {fileID: 0}
  m_Name: Trail 1
  m_Shader: {fileID: 4800000, guid: a9733fe69e4186840bfd60f0d016f560, type: 3}
  m_ShaderKeywords: 
  m_LightmapFlags: 4
  m_EnableInstancingVariants: 0
  m_DoubleSidedGI: 0
  m_CustomRenderQueue: -1
  stringTagMap: {}
  disabledShaderPasses: []
  m_SavedProperties:
    serializedVersion: 3
    m_TexEnvs:
    - _MainTex:
        m_Texture: {fileID: 2800000, guid: 63e1aea739a80b84f845c9fa4bbeb228, type: 3}
        m_Scale: {x: 1, y: 1}
        m_Offset: {x: 0, y: 0}
    m_Floats:
    - _Chanel: 0
    - _ColorStrB: 4
    - _ColorStrG: 0.01
    - _ColorStrR: 2.21875
    - _CoreStrength: 1
    - _CutOutLightCore: 0.5
    - _InvFade: 3
    - _TintStrength: 1
    m_Colors:
    - _Color: {r: 1, g: 1, b: 1, a: 1}
    - _CoreColor: {r: 0.5, g: 0.5, b: 0.5, a: 0.5}
    - _TintColor: {r: 0.11764705, g: 0.11764705, b: 0.11764705, a: 1}
    - _TintColorB: {r: 0.4528302, g: 0.10893556, b: 0.10893556, a: 1}
    - _TintColorG: {r: 1, g: 0.5235849, b: 0.57440245, a: 1}
    - _TintColorR: {r: 0.4339623, g: 0.0061409646, b: 0.032706395, a: 1}
