%YAML 1.1
%TAG !u! tag:unity3d.com,2011:
--- !u!21 &2100000
Material:
  serializedVersion: 6
  m_ObjectHideFlags: 0
  m_CorrespondingSourceObject: {fileID: 0}
  m_PrefabInstance: {fileID: 0}
  m_PrefabAsset: {fileID: 0}
  m_Name: Particles3
  m_Shader: {fileID: 4800000, guid: 8dd004e9d740b5243a2ae184811ddfe4, type: 3}
  m_ShaderKeywords: 
  m_LightmapFlags: 4
  m_EnableInstancingVariants: 0
  m_DoubleSidedGI: 0
  m_CustomRenderQueue: -1
  stringTagMap: {}
  disabledShaderPasses: []
  m_SavedProperties:
    serializedVersion: 3
    m_TexEnvs:
    - _BumpMap:
        m_Texture: {fileID: 0}
        m_Scale: {x: 1, y: 1}
        m_Offset: {x: 0, y: 0}
    - _MainTex:
        m_Texture: {fileID: 2800000, guid: dfcefe89c12227b439efda852a74d0b5, type: 3}
        m_Scale: {x: 1, y: 1}
        m_Offset: {x: 0, y: 0}
    m_Floats:
    - _ColorStrB: 2.21875
    - _ColorStrG: 0.01
    - _ColorStrR: 0.01
    - _InvFade: 3
    m_Colors:
    - _Color: {r: 1, g: 1, b: 1, a: 1}
    - _EmisColor: {r: 0.2, g: 0.2, b: 0.2, a: 0}
    - _TintColor: {r: 0.990566, g: 0.3504361, b: 0.38865307, a: 1}
    - _TintColorB: {r: 0.5955882, g: 0.6820487, b: 1, a: 1}
    - _TintColorG: {r: 1, g: 1, b: 1, a: 1}
    - _TintColorR: {r: 1, g: 1, b: 1, a: 1}
